-- Merging decision tree log ---
manifest
ADDED from /home/dikiy/AndroidStudioProjects/prototype/video_editor_sample/video-android/src/main/AndroidManifest.xml:2:1-10:12
INJECTED from /home/dikiy/AndroidStudioProjects/prototype/video_editor_sample/video-android/src/main/AndroidManifest.xml:2:1-10:12
INJECTED from /home/dikiy/AndroidStudioProjects/prototype/video_editor_sample/video-android/src/main/AndroidManifest.xml:2:1-10:12
INJECTED from /home/dikiy/AndroidStudioProjects/prototype/video_editor_sample/video-android/src/main/AndroidManifest.xml:2:1-10:12
INJECTED from /home/dikiy/AndroidStudioProjects/prototype/video_editor_sample/video-android/src/main/AndroidManifest.xml:2:1-10:12
INJECTED from /home/dikiy/AndroidStudioProjects/prototype/video_editor_sample/video-android/src/main/AndroidManifest.xml:2:1-10:12
INJECTED from /home/dikiy/AndroidStudioProjects/prototype/video_editor_sample/video-android/src/main/AndroidManifest.xml:2:1-10:12
	package
		ADDED from /home/dikiy/AndroidStudioProjects/prototype/video_editor_sample/video-android/src/main/AndroidManifest.xml:3:11-36
		INJECTED from /home/dikiy/AndroidStudioProjects/prototype/video_editor_sample/video-android/src/main/AndroidManifest.xml
		INJECTED from /home/dikiy/AndroidStudioProjects/prototype/video_editor_sample/video-android/src/main/AndroidManifest.xml
	android:versionName
		INJECTED from /home/dikiy/AndroidStudioProjects/prototype/video_editor_sample/video-android/src/main/AndroidManifest.xml
		ADDED from /home/dikiy/AndroidStudioProjects/prototype/video_editor_sample/video-android/src/main/AndroidManifest.xml:2:1-10:12
		INJECTED from /home/dikiy/AndroidStudioProjects/prototype/video_editor_sample/video-android/src/main/AndroidManifest.xml
	android:versionCode
		INJECTED from /home/dikiy/AndroidStudioProjects/prototype/video_editor_sample/video-android/src/main/AndroidManifest.xml
		ADDED from /home/dikiy/AndroidStudioProjects/prototype/video_editor_sample/video-android/src/main/AndroidManifest.xml:2:1-10:12
		INJECTED from /home/dikiy/AndroidStudioProjects/prototype/video_editor_sample/video-android/src/main/AndroidManifest.xml
	xmlns:android
		ADDED from /home/dikiy/AndroidStudioProjects/prototype/video_editor_sample/video-android/src/main/AndroidManifest.xml:2:11-69
uses-feature#0x00020000
ADDED from /home/dikiy/AndroidStudioProjects/prototype/video_editor_sample/video-android/src/main/AndroidManifest.xml:6:5-8:38
	android:glEsVersion
		ADDED from /home/dikiy/AndroidStudioProjects/prototype/video_editor_sample/video-android/src/main/AndroidManifest.xml:7:13-45
	android:required
		ADDED from /home/dikiy/AndroidStudioProjects/prototype/video_editor_sample/video-android/src/main/AndroidManifest.xml:8:13-36
uses-sdk
INJECTED from /home/dikiy/AndroidStudioProjects/prototype/video_editor_sample/video-android/src/main/AndroidManifest.xml reason: use-sdk injection requested
INJECTED from /home/dikiy/AndroidStudioProjects/prototype/video_editor_sample/video-android/src/main/AndroidManifest.xml
INJECTED from /home/dikiy/AndroidStudioProjects/prototype/video_editor_sample/video-android/src/main/AndroidManifest.xml
INJECTED from /home/dikiy/AndroidStudioProjects/prototype/video_editor_sample/video-android/src/main/AndroidManifest.xml
INJECTED from /home/dikiy/AndroidStudioProjects/prototype/video_editor_sample/video-android/src/main/AndroidManifest.xml
	android:targetSdkVersion
		INJECTED from /home/dikiy/AndroidStudioProjects/prototype/video_editor_sample/video-android/src/main/AndroidManifest.xml
		ADDED from /home/dikiy/AndroidStudioProjects/prototype/video_editor_sample/video-android/src/main/AndroidManifest.xml
		INJECTED from /home/dikiy/AndroidStudioProjects/prototype/video_editor_sample/video-android/src/main/AndroidManifest.xml
	android:minSdkVersion
		INJECTED from /home/dikiy/AndroidStudioProjects/prototype/video_editor_sample/video-android/src/main/AndroidManifest.xml
		ADDED from /home/dikiy/AndroidStudioProjects/prototype/video_editor_sample/video-android/src/main/AndroidManifest.xml
		INJECTED from /home/dikiy/AndroidStudioProjects/prototype/video_editor_sample/video-android/src/main/AndroidManifest.xml
